{
    "features":[
	{
	    "name":"x",
	    "dtype":"INT",
	    "ftype":"continuous",
	    "repeat":68
	}
    ],
    "targets":[
	{
	    "name":"encoded",
	    "dtype":"INT",
	    "ftype":"continuous",
	    "repeat":2
	}
    ]
}
